# 3ds Max Wavefront OBJ Exporter v0.97b - (c)2007 guruware
# File Created: 23.06.2013 12:29:48

#
# object HT_SF_medium
#

v  26.9631 72.0000 16.0000
v  26.9631 72.0000 -16.0000
v  -32.0000 72.0000 -16.0000
v  -32.0000 72.0000 16.0000
v  32.0000 62.0198 16.0000
v  -32.0000 0.0000 16.0000
v  32.0000 0.0000 -16.0000
v  32.0000 62.0198 -16.0000
v  32.0000 0.0000 16.0000
v  -32.0000 0.0000 -16.0000
v  34.8786 5.6279 10.9549
v  31.8024 11.5000 12.0000
v  31.8024 6.0000 12.0000
v  31.8024 6.0000 -12.0000
v  31.8024 11.5000 -12.0000
v  34.8786 5.6279 -10.9549
v  36.1940 5.2494 -2.3583
v  32.5197 15.2494 -2.3583
v  32.5197 15.2494 2.3583
v  36.1940 5.2494 2.3583
v  34.8786 13.6279 10.9549
v  31.8024 19.5000 12.0000
v  31.8024 14.0000 12.0000
v  31.8024 14.0000 -12.0000
v  31.8024 19.5000 -12.0000
v  34.8786 13.6279 -10.9549
v  36.1940 13.2494 -2.3583
v  32.5197 23.2494 -2.3583
v  32.5197 23.2494 2.3583
v  36.1940 13.2494 2.3583
v  34.8786 21.6279 10.9549
v  31.8024 27.5000 12.0000
v  31.8024 22.0000 12.0000
v  31.8024 22.0000 -12.0000
v  31.8024 27.5000 -12.0000
v  34.8786 21.6279 -10.9549
v  36.1940 21.2494 -2.3583
v  32.5197 31.2494 -2.3583
v  32.5197 31.2494 2.3583
v  36.1940 21.2494 2.3583
v  34.8786 29.6279 10.9549
v  31.8024 35.5000 12.0000
v  31.8024 30.0000 12.0000
v  31.8024 30.0000 -12.0000
v  31.8024 35.5000 -12.0000
v  34.8786 29.6279 -10.9549
v  36.1940 29.2494 -2.3583
v  32.5197 39.2494 -2.3583
v  32.5197 39.2494 2.3583
v  36.1940 29.2494 2.3583
v  34.8786 37.6279 10.9549
v  31.8024 43.5000 12.0000
v  31.8024 38.0000 12.0000
v  31.8024 38.0000 -12.0000
v  31.8024 43.5000 -12.0000
v  34.8786 37.6279 -10.9549
v  36.1940 37.2494 -2.3583
v  32.5197 47.2494 -2.3583
v  32.5197 47.2494 2.3583
v  36.1940 37.2494 2.3583
v  34.8786 45.6279 10.9549
v  31.8024 51.5000 12.0000
v  31.8024 46.0000 12.0000
v  31.8024 46.0000 -12.0000
v  31.8024 51.5000 -12.0000
v  34.8786 45.6279 -10.9549
v  36.1940 45.2494 -2.3583
v  31.8059 57.1920 -2.3583
v  31.8059 57.1920 2.3583
v  36.1940 45.2494 2.3583
v  34.8786 5.6279 4.6238
v  31.8024 14.0000 4.6238
v  31.8024 14.0000 9.5000
v  31.8024 14.0000 -4.6238
v  34.8786 5.6279 -4.6238
v  31.8024 14.0000 -9.5000
v  34.8786 13.6279 4.6238
v  31.8024 22.0000 4.6238
v  31.8024 22.0000 9.5000
v  31.8024 22.0000 -4.6238
v  34.8786 13.6279 -4.6238
v  31.8024 22.0000 -9.5000
v  34.8786 21.6279 4.6238
v  31.8024 30.0000 4.6238
v  31.8024 30.0000 9.5000
v  31.8024 30.0000 -4.6238
v  34.8786 21.6279 -4.6238
v  31.8024 30.0000 -9.5000
v  34.8786 29.6279 4.6238
v  31.8024 38.0000 4.6238
v  31.8024 38.0000 9.5000
v  31.8024 38.0000 -4.6238
v  34.8786 29.6279 -4.6238
v  31.8024 38.0000 -9.5000
v  34.8786 37.6279 4.6238
v  31.8024 46.0000 4.6238
v  31.8024 46.0000 9.5000
v  31.8024 46.0000 -4.6238
v  34.8786 37.6279 -4.6238
v  31.8024 46.0000 -9.5000
v  34.8786 45.6279 4.6238
v  31.8024 54.0000 4.6238
v  31.8024 54.0000 9.5000
v  31.8024 54.0000 -4.6238
v  34.8786 45.6279 -4.6238
v  31.8024 54.0000 -9.5000
v  15.9822 52.6096 19.0421
v  3.4697 66.1215 19.0421
v  -2.7865 64.3113 19.0421
v  14.3058 45.8537 19.0421
v  14.3058 59.3656 19.0421
v  19.2879 52.6096 15.9387
v  17.1687 61.1505 15.9387
v  9.7260 64.3113 19.0421
v  11.3788 67.4028 15.9387
v  3.4697 69.6913 15.9387
v  -4.4393 67.4028 15.9387
v  -7.3663 59.3656 19.0421
v  -10.2292 61.1505 15.9387
v  -9.0427 52.6096 19.0421
v  -12.3484 52.6096 15.9387
v  -7.3664 45.8537 19.0421
v  -10.2292 44.0688 15.9387
v  -2.7865 40.9080 19.0421
v  -4.4393 37.8165 15.9387
v  3.4697 39.0977 19.0421
v  3.4697 35.5280 15.9387
v  9.7260 40.9080 19.0421
v  11.3788 37.8165 15.9387
v  17.1687 44.0688 15.9387
# 130 vertices

vn 0.0000 1.0000 -0.0000
vn 0.0000 0.0000 1.0000
vn 1.0000 0.0000 -0.0000
vn 0.9728 0.2316 -0.0000
vn 0.0000 0.0000 -1.0000
vn -1.0000 0.0000 -0.0000
vn 0.0000 -1.0000 -0.0000
vn 0.8927 0.4506 -0.0000
# 8 vertex normals

vt 0.6680 0.0112 0.0000
vt 0.6680 0.3046 0.0000
vt 0.3760 0.3046 0.0000
vt 0.3760 0.0112 0.0000
vt 0.4950 0.8895 0.0000
vt 0.4701 0.9810 0.0000
vt 0.1782 0.9810 0.0000
vt 0.1768 0.3208 0.0000
vt 0.6645 0.3208 0.0000
vt 0.6645 0.8895 0.0000
vt 0.5061 0.8895 0.0000
vt 0.5061 0.3208 0.0000
vt 0.6756 0.3146 0.0000
vt 0.9925 0.3146 0.0000
vt 0.6756 0.8833 0.0000
vt 0.0085 0.3185 0.0000
vt 0.1670 0.3185 0.0000
vt 0.1670 0.9787 0.0000
vt 0.0085 0.9787 0.0000
vt 0.9937 0.0085 0.0000
vt 0.9937 0.3020 0.0000
vt 0.6769 0.3020 0.0000
vt 0.6769 0.0085 0.0000
vt 0.4936 0.3208 0.0000
vt 0.9925 0.9748 0.0000
vt 0.7006 0.9748 0.0000
vt 0.6645 0.9920 0.0000
vt 0.5061 0.9920 0.0000
vt 0.5326 0.3716 0.0000
vt 0.5276 0.4247 0.0000
vt 0.5276 0.3749 0.0000
vt 0.6439 0.3749 0.0000
vt 0.6439 0.4247 0.0000
vt 0.6389 0.3716 0.0000
vt 0.5972 0.3681 0.0000
vt 0.5972 0.4430 0.0000
vt 0.5743 0.4430 0.0000
vt 0.5743 0.3681 0.0000
vt 0.5326 0.4440 0.0000
vt 0.5276 0.4972 0.0000
vt 0.5276 0.4474 0.0000
vt 0.6439 0.4474 0.0000
vt 0.6439 0.4972 0.0000
vt 0.6389 0.4440 0.0000
vt 0.5972 0.4406 0.0000
vt 0.5972 0.5155 0.0000
vt 0.5743 0.5155 0.0000
vt 0.5743 0.4406 0.0000
vt 0.5326 0.5165 0.0000
vt 0.5276 0.5696 0.0000
vt 0.5276 0.5198 0.0000
vt 0.6439 0.5198 0.0000
vt 0.6439 0.5696 0.0000
vt 0.6389 0.5165 0.0000
vt 0.5972 0.5130 0.0000
vt 0.5972 0.5879 0.0000
vt 0.5743 0.5879 0.0000
vt 0.5743 0.5130 0.0000
vt 0.5326 0.5889 0.0000
vt 0.5276 0.6421 0.0000
vt 0.5276 0.5923 0.0000
vt 0.6439 0.5923 0.0000
vt 0.6439 0.6421 0.0000
vt 0.6389 0.5889 0.0000
vt 0.5972 0.5855 0.0000
vt 0.5972 0.6604 0.0000
vt 0.5743 0.6604 0.0000
vt 0.5743 0.5855 0.0000
vt 0.5326 0.6613 0.0000
vt 0.5276 0.7145 0.0000
vt 0.5276 0.6647 0.0000
vt 0.6439 0.6647 0.0000
vt 0.6439 0.7145 0.0000
vt 0.6389 0.6613 0.0000
vt 0.5972 0.6579 0.0000
vt 0.5972 0.7328 0.0000
vt 0.5743 0.7328 0.0000
vt 0.5743 0.6579 0.0000
vt 0.5326 0.7338 0.0000
vt 0.5276 0.7869 0.0000
vt 0.5276 0.7371 0.0000
vt 0.6439 0.7371 0.0000
vt 0.6439 0.7869 0.0000
vt 0.6389 0.7338 0.0000
vt 0.5972 0.7303 0.0000
vt 0.5972 0.8385 0.0000
vt 0.5743 0.8385 0.0000
vt 0.5743 0.7303 0.0000
vt 0.5633 0.3716 0.0000
vt 0.5633 0.4474 0.0000
vt 0.5362 0.4453 0.0000
vt 0.6082 0.4474 0.0000
vt 0.6082 0.3716 0.0000
vt 0.6356 0.4443 0.0000
vt 0.5633 0.4440 0.0000
vt 0.5633 0.5198 0.0000
vt 0.5362 0.5177 0.0000
vt 0.6082 0.5198 0.0000
vt 0.6082 0.4440 0.0000
vt 0.6356 0.5167 0.0000
vt 0.5633 0.5165 0.0000
vt 0.5633 0.5923 0.0000
vt 0.5362 0.5901 0.0000
vt 0.6082 0.5923 0.0000
vt 0.6082 0.5165 0.0000
vt 0.6356 0.5892 0.0000
vt 0.5633 0.5889 0.0000
vt 0.5633 0.6647 0.0000
vt 0.5362 0.6626 0.0000
vt 0.6082 0.6647 0.0000
vt 0.6082 0.5889 0.0000
vt 0.6356 0.6616 0.0000
vt 0.5633 0.6613 0.0000
vt 0.5633 0.7371 0.0000
vt 0.5362 0.7350 0.0000
vt 0.6082 0.7371 0.0000
vt 0.6082 0.6613 0.0000
vt 0.6356 0.7341 0.0000
vt 0.5633 0.7338 0.0000
vt 0.5633 0.8096 0.0000
vt 0.5362 0.8075 0.0000
vt 0.6082 0.8096 0.0000
vt 0.6082 0.7338 0.0000
vt 0.6356 0.8065 0.0000
vt 0.4154 0.8029 0.0000
vt 0.3534 0.9265 0.0000
vt 0.3224 0.9099 0.0000
vt 0.4071 0.7411 0.0000
vt 0.4071 0.8647 0.0000
vt 0.4318 0.8029 0.0000
vt 0.4213 0.8810 0.0000
vt 0.3844 0.9099 0.0000
vt 0.3926 0.9382 0.0000
vt 0.3534 0.9591 0.0000
vt 0.3142 0.9382 0.0000
vt 0.2997 0.8647 0.0000
vt 0.2855 0.8810 0.0000
vt 0.2914 0.8029 0.0000
vt 0.2750 0.8029 0.0000
vt 0.2997 0.7411 0.0000
vt 0.2855 0.7248 0.0000
vt 0.3224 0.6959 0.0000
vt 0.3142 0.6676 0.0000
vt 0.3534 0.6794 0.0000
vt 0.3534 0.6467 0.0000
vt 0.3844 0.6959 0.0000
vt 0.3926 0.6676 0.0000
vt 0.4213 0.7248 0.0000
# 148 texture coords

g HT_SF_medium
s 1
f 1/1/1 2/2/1 3/3/1 4/4/1 
s 2
f 5/5/2 1/6/2 4/7/2 6/8/2 
s 4
f 7/9/3 8/10/4 5/11/4 9/12/3 
s 2
f 7/13/5 10/14/5 8/15/5 
s 4
f 10/16/6 6/17/6 4/18/6 3/19/6 
s 1
f 7/20/7 9/21/7 6/22/7 10/23/7 
s 2
f 6/8/2 9/24/2 5/5/2 
f 10/14/5 3/25/5 2/26/5 8/15/5 
s 4
f 2/27/8 1/28/8 5/11/4 8/10/4 
s 1
f 11/29/3 12/30/3 13/31/3 
f 14/32/3 15/33/3 16/34/3 
s 2
f 17/35/3 18/36/3 19/37/3 20/38/3 
s 1
f 21/39/3 22/40/3 23/41/3 
f 24/42/3 25/43/3 26/44/3 
s 2
f 27/45/3 28/46/3 29/47/3 30/48/3 
s 1
f 31/49/3 32/50/3 33/51/3 
f 34/52/3 35/53/3 36/54/3 
s 2
f 37/55/3 38/56/3 39/57/3 40/58/3 
s 1
f 41/59/3 42/60/3 43/61/3 
f 44/62/3 45/63/3 46/64/3 
s 2
f 47/65/3 48/66/3 49/67/3 50/68/3 
s 1
f 51/69/3 52/70/3 53/71/3 
f 54/72/3 55/73/3 56/74/3 
s 2
f 57/75/3 58/76/3 59/77/3 60/78/3 
s 1
f 61/79/3 62/80/3 63/81/3 
f 64/82/3 65/83/3 66/84/3 
s 2
f 67/85/3 68/86/3 69/87/3 70/88/3 
f 71/89/3 72/90/3 73/91/3 11/29/3 
f 74/92/3 75/93/3 16/34/3 76/94/3 
f 77/95/3 78/96/3 79/97/3 21/39/3 
f 80/98/3 81/99/3 26/44/3 82/100/3 
f 83/101/3 84/102/3 85/103/3 31/49/3 
f 86/104/3 87/105/3 36/54/3 88/106/3 
f 89/107/3 90/108/3 91/109/3 41/59/3 
f 92/110/3 93/111/3 46/64/3 94/112/3 
f 95/113/3 96/114/3 97/115/3 51/69/3 
f 98/116/3 99/117/3 56/74/3 100/118/3 
f 101/119/3 102/120/3 103/121/3 61/79/3 
f 104/122/3 105/123/3 66/84/3 106/124/3 
f 20/38/3 19/37/3 72/90/3 71/89/3 
f 18/36/3 17/35/3 75/93/3 74/92/3 
f 30/48/3 29/47/3 78/96/3 77/95/3 
f 28/46/3 27/45/3 81/99/3 80/98/3 
f 40/58/3 39/57/3 84/102/3 83/101/3 
f 38/56/3 37/55/3 87/105/3 86/104/3 
f 50/68/3 49/67/3 90/108/3 89/107/3 
f 48/66/3 47/65/3 93/111/3 92/110/3 
f 60/78/3 59/77/3 96/114/3 95/113/3 
f 58/76/3 57/75/3 99/117/3 98/116/3 
f 70/88/3 69/87/3 102/120/3 101/119/3 
f 68/86/3 67/85/3 105/123/3 104/122/3 
s 1
f 11/29/3 73/91/3 12/30/3 
f 21/39/3 79/97/3 22/40/3 
f 31/49/3 85/103/3 32/50/3 
f 41/59/3 91/109/3 42/60/3 
f 51/69/3 97/115/3 52/70/3 
f 61/79/3 103/121/3 62/80/3 
f 15/33/3 76/94/3 16/34/3 
f 25/43/3 82/100/3 26/44/3 
f 35/53/3 88/106/3 36/54/3 
f 45/63/3 94/112/3 46/64/3 
f 55/73/3 100/118/3 56/74/3 
f 65/83/3 106/124/3 66/84/3 
f 107/125/2 108/126/2 109/127/2 110/128/2 
s off
f 111/129/2 107/125/2 112/130/2 113/131/2 
f 114/132/2 111/129/2 113/131/2 115/133/2 
f 108/126/2 114/132/2 115/133/2 116/134/2 
f 109/127/2 108/126/2 116/134/2 117/135/2 
f 118/136/2 109/127/2 117/135/2 119/137/2 
f 120/138/2 118/136/2 119/137/2 121/139/2 
f 122/140/2 120/138/2 121/139/2 123/141/2 
f 124/142/2 122/140/2 123/141/2 125/143/2 
f 126/144/2 124/142/2 125/143/2 127/145/2 
f 128/146/2 126/144/2 127/145/2 129/147/2 
f 110/128/2 128/146/2 129/147/2 130/148/2 
f 107/125/2 110/128/2 130/148/2 112/130/2 
s 1
f 122/140/2 124/142/2 126/144/2 120/138/2 
f 118/136/2 128/146/2 110/128/2 109/127/2 
f 120/138/2 126/144/2 128/146/2 118/136/2 
f 111/129/2 114/132/2 108/126/2 107/125/2 
# 54 polygons - 26 triangles

